{
  "shell_port": 47733,
  "iopub_port": 35617,
  "stdin_port": 44039,
  "control_port": 44021,
  "hb_port": 33267,
  "ip": "127.0.0.1",
  "key": "5489d51b-724a53015fea6bcda7095d41",
  "transport": "tcp",
  "signature_scheme": "hmac-sha256",
  "kernel_name": ""
}