{
  "base_url": "/user/xinyuezzz-mt15-2021-83l7isgc/",
  "hostname": "0.0.0.0",
  "notebook_dir": "/home/jovyan",
  "password": false,
  "pid": 18,
  "port": 8888,
  "secure": false,
  "sock": "",
  "token": "86TbT8-eRieBnrWXaDX_GQ",
  "url": "http://0.0.0.0:8888/user/xinyuezzz-mt15-2021-83l7isgc/"
}